2019-09-15T01:58:55+00:00 CRITICAL Uncaught Error: Call to a member function get_image() on null in /home/annexhou/public_html/liposales.com/wp-content/plugins/woocommerce-centaur-addon/includes/class-woocommerce-centaur-addon-public.php:180
Stack trace:
#0 /home/annexhou/public_html/liposales.com/wp-includes/class-wp-hook.php(286): Woocommerce_Centaur_Addon_Public->get_product_thumbnail('')
#1 /home/annexhou/public_html/liposales.com/wp-includes/class-wp-hook.php(310): WP_Hook->apply_filters('', Array)
#2 /home/annexhou/public_html/liposales.com/wp-includes/plugin.php(465): WP_Hook->do_action(Array)
#3 /home/annexhou/public_html/liposales.com/wp-content/themes/liposales/centaur/modal/content-body.php(18): do_action('cm_woo_get_thum...')
#4 /home/annexhou/public_html/liposales.com/wp-content/plugins/woocommerce-centaur-addon/includes/class-woocommerce-centaur-addon-template.php(94): include('/home/annexhou/...')
#5 /home/annexhou/public_html/liposales.com/wp-content/plugins/woocommerce-centaur-addon/includes/class-woocommerce-centaur-addon-tem in /home/annexhou/public_html/liposales.com/wp-content/plugins/woocommerce-centaur-addon/includes/class-woocommerce-centaur-addon-public.php on line 180

2019-09-15T02:52:28+00:00 CRITICAL Uncaught Error: Call to a member function get_image() on null in /home/annexhou/public_html/liposales.com/wp-content/plugins/woocommerce-centaur-addon/includes/class-woocommerce-centaur-addon-public.php:180
Stack trace:
#0 /home/annexhou/public_html/liposales.com/wp-includes/class-wp-hook.php(286): Woocommerce_Centaur_Addon_Public->get_product_thumbnail('')
#1 /home/annexhou/public_html/liposales.com/wp-includes/class-wp-hook.php(310): WP_Hook->apply_filters('', Array)
#2 /home/annexhou/public_html/liposales.com/wp-includes/plugin.php(465): WP_Hook->do_action(Array)
#3 /home/annexhou/public_html/liposales.com/wp-content/themes/liposales/centaur/modal/content-body.php(18): do_action('cm_woo_get_thum...')
#4 /home/annexhou/public_html/liposales.com/wp-content/plugins/woocommerce-centaur-addon/includes/class-woocommerce-centaur-addon-template.php(94): include('/home/annexhou/...')
#5 /home/annexhou/public_html/liposales.com/wp-content/plugins/woocommerce-centaur-addon/includes/class-woocommerce-centaur-addon-tem in /home/annexhou/public_html/liposales.com/wp-content/plugins/woocommerce-centaur-addon/includes/class-woocommerce-centaur-addon-public.php on line 180

2019-09-15T03:00:06+00:00 CRITICAL Uncaught Error: Call to a member function get_image() on null in /home/annexhou/public_html/liposales.com/wp-content/plugins/woocommerce-centaur-addon/includes/class-woocommerce-centaur-addon-public.php:180
Stack trace:
#0 /home/annexhou/public_html/liposales.com/wp-includes/class-wp-hook.php(286): Woocommerce_Centaur_Addon_Public->get_product_thumbnail('')
#1 /home/annexhou/public_html/liposales.com/wp-includes/class-wp-hook.php(310): WP_Hook->apply_filters('', Array)
#2 /home/annexhou/public_html/liposales.com/wp-includes/plugin.php(465): WP_Hook->do_action(Array)
#3 /home/annexhou/public_html/liposales.com/wp-content/themes/liposales/centaur/modal/content-body.php(18): do_action('cm_woo_get_thum...')
#4 /home/annexhou/public_html/liposales.com/wp-content/plugins/woocommerce-centaur-addon/includes/class-woocommerce-centaur-addon-template.php(94): include('/home/annexhou/...')
#5 /home/annexhou/public_html/liposales.com/wp-content/plugins/woocommerce-centaur-addon/includes/class-woocommerce-centaur-addon-tem in /home/annexhou/public_html/liposales.com/wp-content/plugins/woocommerce-centaur-addon/includes/class-woocommerce-centaur-addon-public.php on line 180

2019-09-15T03:35:11+00:00 CRITICAL Uncaught Error: Call to a member function get_image() on null in /home/annexhou/public_html/liposales.com/wp-content/plugins/woocommerce-centaur-addon/includes/class-woocommerce-centaur-addon-public.php:180
Stack trace:
#0 /home/annexhou/public_html/liposales.com/wp-includes/class-wp-hook.php(286): Woocommerce_Centaur_Addon_Public->get_product_thumbnail('')
#1 /home/annexhou/public_html/liposales.com/wp-includes/class-wp-hook.php(310): WP_Hook->apply_filters('', Array)
#2 /home/annexhou/public_html/liposales.com/wp-includes/plugin.php(465): WP_Hook->do_action(Array)
#3 /home/annexhou/public_html/liposales.com/wp-content/themes/liposales/centaur/modal/content-body.php(18): do_action('cm_woo_get_thum...')
#4 /home/annexhou/public_html/liposales.com/wp-content/plugins/woocommerce-centaur-addon/includes/class-woocommerce-centaur-addon-template.php(94): include('/home/annexhou/...')
#5 /home/annexhou/public_html/liposales.com/wp-content/plugins/woocommerce-centaur-addon/includes/class-woocommerce-centaur-addon-tem in /home/annexhou/public_html/liposales.com/wp-content/plugins/woocommerce-centaur-addon/includes/class-woocommerce-centaur-addon-public.php on line 180

2019-09-15T04:46:01+00:00 CRITICAL Uncaught Error: Call to a member function get_image() on null in /home/annexhou/public_html/liposales.com/wp-content/plugins/woocommerce-centaur-addon/includes/class-woocommerce-centaur-addon-public.php:180
Stack trace:
#0 /home/annexhou/public_html/liposales.com/wp-includes/class-wp-hook.php(286): Woocommerce_Centaur_Addon_Public->get_product_thumbnail('')
#1 /home/annexhou/public_html/liposales.com/wp-includes/class-wp-hook.php(310): WP_Hook->apply_filters('', Array)
#2 /home/annexhou/public_html/liposales.com/wp-includes/plugin.php(465): WP_Hook->do_action(Array)
#3 /home/annexhou/public_html/liposales.com/wp-content/themes/liposales/centaur/modal/content-body.php(18): do_action('cm_woo_get_thum...')
#4 /home/annexhou/public_html/liposales.com/wp-content/plugins/woocommerce-centaur-addon/includes/class-woocommerce-centaur-addon-template.php(94): include('/home/annexhou/...')
#5 /home/annexhou/public_html/liposales.com/wp-content/plugins/woocommerce-centaur-addon/includes/class-woocommerce-centaur-addon-tem in /home/annexhou/public_html/liposales.com/wp-content/plugins/woocommerce-centaur-addon/includes/class-woocommerce-centaur-addon-public.php on line 180

2019-09-15T04:46:16+00:00 CRITICAL Uncaught Error: Call to a member function get_image() on null in /home/annexhou/public_html/liposales.com/wp-content/plugins/woocommerce-centaur-addon/includes/class-woocommerce-centaur-addon-public.php:180
Stack trace:
#0 /home/annexhou/public_html/liposales.com/wp-includes/class-wp-hook.php(286): Woocommerce_Centaur_Addon_Public->get_product_thumbnail('')
#1 /home/annexhou/public_html/liposales.com/wp-includes/class-wp-hook.php(310): WP_Hook->apply_filters('', Array)
#2 /home/annexhou/public_html/liposales.com/wp-includes/plugin.php(465): WP_Hook->do_action(Array)
#3 /home/annexhou/public_html/liposales.com/wp-content/themes/liposales/centaur/modal/content-body.php(18): do_action('cm_woo_get_thum...')
#4 /home/annexhou/public_html/liposales.com/wp-content/plugins/woocommerce-centaur-addon/includes/class-woocommerce-centaur-addon-template.php(94): include('/home/annexhou/...')
#5 /home/annexhou/public_html/liposales.com/wp-content/plugins/woocommerce-centaur-addon/includes/class-woocommerce-centaur-addon-tem in /home/annexhou/public_html/liposales.com/wp-content/plugins/woocommerce-centaur-addon/includes/class-woocommerce-centaur-addon-public.php on line 180

2019-09-15T05:40:44+00:00 CRITICAL Uncaught Error: Call to a member function get_image() on null in /home/annexhou/public_html/liposales.com/wp-content/plugins/woocommerce-centaur-addon/includes/class-woocommerce-centaur-addon-public.php:180
Stack trace:
#0 /home/annexhou/public_html/liposales.com/wp-includes/class-wp-hook.php(286): Woocommerce_Centaur_Addon_Public->get_product_thumbnail('')
#1 /home/annexhou/public_html/liposales.com/wp-includes/class-wp-hook.php(310): WP_Hook->apply_filters('', Array)
#2 /home/annexhou/public_html/liposales.com/wp-includes/plugin.php(465): WP_Hook->do_action(Array)
#3 /home/annexhou/public_html/liposales.com/wp-content/themes/liposales/centaur/modal/content-body.php(18): do_action('cm_woo_get_thum...')
#4 /home/annexhou/public_html/liposales.com/wp-content/plugins/woocommerce-centaur-addon/includes/class-woocommerce-centaur-addon-template.php(94): include('/home/annexhou/...')
#5 /home/annexhou/public_html/liposales.com/wp-content/plugins/woocommerce-centaur-addon/includes/class-woocommerce-centaur-addon-tem in /home/annexhou/public_html/liposales.com/wp-content/plugins/woocommerce-centaur-addon/includes/class-woocommerce-centaur-addon-public.php on line 180

2019-09-15T06:05:36+00:00 CRITICAL Uncaught Error: Call to a member function get_image() on null in /home/annexhou/public_html/liposales.com/wp-content/plugins/woocommerce-centaur-addon/includes/class-woocommerce-centaur-addon-public.php:180
Stack trace:
#0 /home/annexhou/public_html/liposales.com/wp-includes/class-wp-hook.php(286): Woocommerce_Centaur_Addon_Public->get_product_thumbnail('')
#1 /home/annexhou/public_html/liposales.com/wp-includes/class-wp-hook.php(310): WP_Hook->apply_filters('', Array)
#2 /home/annexhou/public_html/liposales.com/wp-includes/plugin.php(465): WP_Hook->do_action(Array)
#3 /home/annexhou/public_html/liposales.com/wp-content/themes/liposales/centaur/modal/content-body.php(18): do_action('cm_woo_get_thum...')
#4 /home/annexhou/public_html/liposales.com/wp-content/plugins/woocommerce-centaur-addon/includes/class-woocommerce-centaur-addon-template.php(94): include('/home/annexhou/...')
#5 /home/annexhou/public_html/liposales.com/wp-content/plugins/woocommerce-centaur-addon/includes/class-woocommerce-centaur-addon-tem in /home/annexhou/public_html/liposales.com/wp-content/plugins/woocommerce-centaur-addon/includes/class-woocommerce-centaur-addon-public.php on line 180

2019-09-15T06:28:39+00:00 CRITICAL Uncaught Error: Call to a member function get_image() on null in /home/annexhou/public_html/liposales.com/wp-content/plugins/woocommerce-centaur-addon/includes/class-woocommerce-centaur-addon-public.php:180
Stack trace:
#0 /home/annexhou/public_html/liposales.com/wp-includes/class-wp-hook.php(286): Woocommerce_Centaur_Addon_Public->get_product_thumbnail('')
#1 /home/annexhou/public_html/liposales.com/wp-includes/class-wp-hook.php(310): WP_Hook->apply_filters('', Array)
#2 /home/annexhou/public_html/liposales.com/wp-includes/plugin.php(465): WP_Hook->do_action(Array)
#3 /home/annexhou/public_html/liposales.com/wp-content/themes/liposales/centaur/modal/content-body.php(18): do_action('cm_woo_get_thum...')
#4 /home/annexhou/public_html/liposales.com/wp-content/plugins/woocommerce-centaur-addon/includes/class-woocommerce-centaur-addon-template.php(94): include('/home/annexhou/...')
#5 /home/annexhou/public_html/liposales.com/wp-content/plugins/woocommerce-centaur-addon/includes/class-woocommerce-centaur-addon-tem in /home/annexhou/public_html/liposales.com/wp-content/plugins/woocommerce-centaur-addon/includes/class-woocommerce-centaur-addon-public.php on line 180

2019-09-15T06:55:46+00:00 CRITICAL Uncaught Error: Call to a member function get_image() on null in /home/annexhou/public_html/liposales.com/wp-content/plugins/woocommerce-centaur-addon/includes/class-woocommerce-centaur-addon-public.php:180
Stack trace:
#0 /home/annexhou/public_html/liposales.com/wp-includes/class-wp-hook.php(286): Woocommerce_Centaur_Addon_Public->get_product_thumbnail('')
#1 /home/annexhou/public_html/liposales.com/wp-includes/class-wp-hook.php(310): WP_Hook->apply_filters('', Array)
#2 /home/annexhou/public_html/liposales.com/wp-includes/plugin.php(465): WP_Hook->do_action(Array)
#3 /home/annexhou/public_html/liposales.com/wp-content/themes/liposales/centaur/modal/content-body.php(18): do_action('cm_woo_get_thum...')
#4 /home/annexhou/public_html/liposales.com/wp-content/plugins/woocommerce-centaur-addon/includes/class-woocommerce-centaur-addon-template.php(94): include('/home/annexhou/...')
#5 /home/annexhou/public_html/liposales.com/wp-content/plugins/woocommerce-centaur-addon/includes/class-woocommerce-centaur-addon-tem in /home/annexhou/public_html/liposales.com/wp-content/plugins/woocommerce-centaur-addon/includes/class-woocommerce-centaur-addon-public.php on line 180

2019-09-15T07:49:23+00:00 CRITICAL Uncaught Error: Call to a member function get_image() on null in /home/annexhou/public_html/liposales.com/wp-content/plugins/woocommerce-centaur-addon/includes/class-woocommerce-centaur-addon-public.php:180
Stack trace:
#0 /home/annexhou/public_html/liposales.com/wp-includes/class-wp-hook.php(286): Woocommerce_Centaur_Addon_Public->get_product_thumbnail('')
#1 /home/annexhou/public_html/liposales.com/wp-includes/class-wp-hook.php(310): WP_Hook->apply_filters('', Array)
#2 /home/annexhou/public_html/liposales.com/wp-includes/plugin.php(465): WP_Hook->do_action(Array)
#3 /home/annexhou/public_html/liposales.com/wp-content/themes/liposales/centaur/modal/content-body.php(18): do_action('cm_woo_get_thum...')
#4 /home/annexhou/public_html/liposales.com/wp-content/plugins/woocommerce-centaur-addon/includes/class-woocommerce-centaur-addon-template.php(94): include('/home/annexhou/...')
#5 /home/annexhou/public_html/liposales.com/wp-content/plugins/woocommerce-centaur-addon/includes/class-woocommerce-centaur-addon-tem in /home/annexhou/public_html/liposales.com/wp-content/plugins/woocommerce-centaur-addon/includes/class-woocommerce-centaur-addon-public.php on line 180

2019-09-15T07:56:08+00:00 CRITICAL Uncaught Error: Call to a member function get_image() on null in /home/annexhou/public_html/liposales.com/wp-content/plugins/woocommerce-centaur-addon/includes/class-woocommerce-centaur-addon-public.php:180
Stack trace:
#0 /home/annexhou/public_html/liposales.com/wp-includes/class-wp-hook.php(286): Woocommerce_Centaur_Addon_Public->get_product_thumbnail('')
#1 /home/annexhou/public_html/liposales.com/wp-includes/class-wp-hook.php(310): WP_Hook->apply_filters('', Array)
#2 /home/annexhou/public_html/liposales.com/wp-includes/plugin.php(465): WP_Hook->do_action(Array)
#3 /home/annexhou/public_html/liposales.com/wp-content/themes/liposales/centaur/modal/content-body.php(18): do_action('cm_woo_get_thum...')
#4 /home/annexhou/public_html/liposales.com/wp-content/plugins/woocommerce-centaur-addon/includes/class-woocommerce-centaur-addon-template.php(94): include('/home/annexhou/...')
#5 /home/annexhou/public_html/liposales.com/wp-content/plugins/woocommerce-centaur-addon/includes/class-woocommerce-centaur-addon-tem in /home/annexhou/public_html/liposales.com/wp-content/plugins/woocommerce-centaur-addon/includes/class-woocommerce-centaur-addon-public.php on line 180

2019-09-15T08:05:50+00:00 CRITICAL Uncaught Error: Call to a member function get_image() on null in /home/annexhou/public_html/liposales.com/wp-content/plugins/woocommerce-centaur-addon/includes/class-woocommerce-centaur-addon-public.php:180
Stack trace:
#0 /home/annexhou/public_html/liposales.com/wp-includes/class-wp-hook.php(286): Woocommerce_Centaur_Addon_Public->get_product_thumbnail('')
#1 /home/annexhou/public_html/liposales.com/wp-includes/class-wp-hook.php(310): WP_Hook->apply_filters('', Array)
#2 /home/annexhou/public_html/liposales.com/wp-includes/plugin.php(465): WP_Hook->do_action(Array)
#3 /home/annexhou/public_html/liposales.com/wp-content/themes/liposales/centaur/modal/content-body.php(18): do_action('cm_woo_get_thum...')
#4 /home/annexhou/public_html/liposales.com/wp-content/plugins/woocommerce-centaur-addon/includes/class-woocommerce-centaur-addon-template.php(94): include('/home/annexhou/...')
#5 /home/annexhou/public_html/liposales.com/wp-content/plugins/woocommerce-centaur-addon/includes/class-woocommerce-centaur-addon-tem in /home/annexhou/public_html/liposales.com/wp-content/plugins/woocommerce-centaur-addon/includes/class-woocommerce-centaur-addon-public.php on line 180

2019-09-15T08:25:56+00:00 CRITICAL Uncaught Error: Call to a member function get_image() on null in /home/annexhou/public_html/liposales.com/wp-content/plugins/woocommerce-centaur-addon/includes/class-woocommerce-centaur-addon-public.php:180
Stack trace:
#0 /home/annexhou/public_html/liposales.com/wp-includes/class-wp-hook.php(286): Woocommerce_Centaur_Addon_Public->get_product_thumbnail('')
#1 /home/annexhou/public_html/liposales.com/wp-includes/class-wp-hook.php(310): WP_Hook->apply_filters('', Array)
#2 /home/annexhou/public_html/liposales.com/wp-includes/plugin.php(465): WP_Hook->do_action(Array)
#3 /home/annexhou/public_html/liposales.com/wp-content/themes/liposales/centaur/modal/content-body.php(18): do_action('cm_woo_get_thum...')
#4 /home/annexhou/public_html/liposales.com/wp-content/plugins/woocommerce-centaur-addon/includes/class-woocommerce-centaur-addon-template.php(94): include('/home/annexhou/...')
#5 /home/annexhou/public_html/liposales.com/wp-content/plugins/woocommerce-centaur-addon/includes/class-woocommerce-centaur-addon-tem in /home/annexhou/public_html/liposales.com/wp-content/plugins/woocommerce-centaur-addon/includes/class-woocommerce-centaur-addon-public.php on line 180

2019-09-15T08:36:49+00:00 CRITICAL Uncaught Error: Call to a member function get_image() on null in /home/annexhou/public_html/liposales.com/wp-content/plugins/woocommerce-centaur-addon/includes/class-woocommerce-centaur-addon-public.php:180
Stack trace:
#0 /home/annexhou/public_html/liposales.com/wp-includes/class-wp-hook.php(286): Woocommerce_Centaur_Addon_Public->get_product_thumbnail('')
#1 /home/annexhou/public_html/liposales.com/wp-includes/class-wp-hook.php(310): WP_Hook->apply_filters('', Array)
#2 /home/annexhou/public_html/liposales.com/wp-includes/plugin.php(465): WP_Hook->do_action(Array)
#3 /home/annexhou/public_html/liposales.com/wp-content/themes/liposales/centaur/modal/content-body.php(18): do_action('cm_woo_get_thum...')
#4 /home/annexhou/public_html/liposales.com/wp-content/plugins/woocommerce-centaur-addon/includes/class-woocommerce-centaur-addon-template.php(94): include('/home/annexhou/...')
#5 /home/annexhou/public_html/liposales.com/wp-content/plugins/woocommerce-centaur-addon/includes/class-woocommerce-centaur-addon-tem in /home/annexhou/public_html/liposales.com/wp-content/plugins/woocommerce-centaur-addon/includes/class-woocommerce-centaur-addon-public.php on line 180

2019-09-15T08:46:19+00:00 CRITICAL Uncaught Error: Call to a member function get_image() on null in /home/annexhou/public_html/liposales.com/wp-content/plugins/woocommerce-centaur-addon/includes/class-woocommerce-centaur-addon-public.php:180
Stack trace:
#0 /home/annexhou/public_html/liposales.com/wp-includes/class-wp-hook.php(286): Woocommerce_Centaur_Addon_Public->get_product_thumbnail('')
#1 /home/annexhou/public_html/liposales.com/wp-includes/class-wp-hook.php(310): WP_Hook->apply_filters('', Array)
#2 /home/annexhou/public_html/liposales.com/wp-includes/plugin.php(465): WP_Hook->do_action(Array)
#3 /home/annexhou/public_html/liposales.com/wp-content/themes/liposales/centaur/modal/content-body.php(18): do_action('cm_woo_get_thum...')
#4 /home/annexhou/public_html/liposales.com/wp-content/plugins/woocommerce-centaur-addon/includes/class-woocommerce-centaur-addon-template.php(94): include('/home/annexhou/...')
#5 /home/annexhou/public_html/liposales.com/wp-content/plugins/woocommerce-centaur-addon/includes/class-woocommerce-centaur-addon-tem in /home/annexhou/public_html/liposales.com/wp-content/plugins/woocommerce-centaur-addon/includes/class-woocommerce-centaur-addon-public.php on line 180

2019-09-15T08:58:17+00:00 CRITICAL Uncaught Error: Call to a member function get_image() on null in /home/annexhou/public_html/liposales.com/wp-content/plugins/woocommerce-centaur-addon/includes/class-woocommerce-centaur-addon-public.php:180
Stack trace:
#0 /home/annexhou/public_html/liposales.com/wp-includes/class-wp-hook.php(286): Woocommerce_Centaur_Addon_Public->get_product_thumbnail('')
#1 /home/annexhou/public_html/liposales.com/wp-includes/class-wp-hook.php(310): WP_Hook->apply_filters('', Array)
#2 /home/annexhou/public_html/liposales.com/wp-includes/plugin.php(465): WP_Hook->do_action(Array)
#3 /home/annexhou/public_html/liposales.com/wp-content/themes/liposales/centaur/modal/content-body.php(18): do_action('cm_woo_get_thum...')
#4 /home/annexhou/public_html/liposales.com/wp-content/plugins/woocommerce-centaur-addon/includes/class-woocommerce-centaur-addon-template.php(94): include('/home/annexhou/...')
#5 /home/annexhou/public_html/liposales.com/wp-content/plugins/woocommerce-centaur-addon/includes/class-woocommerce-centaur-addon-tem in /home/annexhou/public_html/liposales.com/wp-content/plugins/woocommerce-centaur-addon/includes/class-woocommerce-centaur-addon-public.php on line 180

2019-09-15T09:27:18+00:00 CRITICAL Uncaught Error: Call to a member function get_image() on null in /home/annexhou/public_html/liposales.com/wp-content/plugins/woocommerce-centaur-addon/includes/class-woocommerce-centaur-addon-public.php:180
Stack trace:
#0 /home/annexhou/public_html/liposales.com/wp-includes/class-wp-hook.php(286): Woocommerce_Centaur_Addon_Public->get_product_thumbnail('')
#1 /home/annexhou/public_html/liposales.com/wp-includes/class-wp-hook.php(310): WP_Hook->apply_filters('', Array)
#2 /home/annexhou/public_html/liposales.com/wp-includes/plugin.php(465): WP_Hook->do_action(Array)
#3 /home/annexhou/public_html/liposales.com/wp-content/themes/liposales/centaur/modal/content-body.php(18): do_action('cm_woo_get_thum...')
#4 /home/annexhou/public_html/liposales.com/wp-content/plugins/woocommerce-centaur-addon/includes/class-woocommerce-centaur-addon-template.php(94): include('/home/annexhou/...')
#5 /home/annexhou/public_html/liposales.com/wp-content/plugins/woocommerce-centaur-addon/includes/class-woocommerce-centaur-addon-tem in /home/annexhou/public_html/liposales.com/wp-content/plugins/woocommerce-centaur-addon/includes/class-woocommerce-centaur-addon-public.php on line 180

2019-09-15T09:29:30+00:00 CRITICAL Uncaught Error: Call to a member function get_image() on null in /home/annexhou/public_html/liposales.com/wp-content/plugins/woocommerce-centaur-addon/includes/class-woocommerce-centaur-addon-public.php:180
Stack trace:
#0 /home/annexhou/public_html/liposales.com/wp-includes/class-wp-hook.php(286): Woocommerce_Centaur_Addon_Public->get_product_thumbnail('')
#1 /home/annexhou/public_html/liposales.com/wp-includes/class-wp-hook.php(310): WP_Hook->apply_filters('', Array)
#2 /home/annexhou/public_html/liposales.com/wp-includes/plugin.php(465): WP_Hook->do_action(Array)
#3 /home/annexhou/public_html/liposales.com/wp-content/themes/liposales/centaur/modal/content-body.php(18): do_action('cm_woo_get_thum...')
#4 /home/annexhou/public_html/liposales.com/wp-content/plugins/woocommerce-centaur-addon/includes/class-woocommerce-centaur-addon-template.php(94): include('/home/annexhou/...')
#5 /home/annexhou/public_html/liposales.com/wp-content/plugins/woocommerce-centaur-addon/includes/class-woocommerce-centaur-addon-tem in /home/annexhou/public_html/liposales.com/wp-content/plugins/woocommerce-centaur-addon/includes/class-woocommerce-centaur-addon-public.php on line 180

2019-09-15T09:40:42+00:00 CRITICAL Uncaught Error: Call to a member function get_image() on null in /home/annexhou/public_html/liposales.com/wp-content/plugins/woocommerce-centaur-addon/includes/class-woocommerce-centaur-addon-public.php:180
Stack trace:
#0 /home/annexhou/public_html/liposales.com/wp-includes/class-wp-hook.php(286): Woocommerce_Centaur_Addon_Public->get_product_thumbnail('')
#1 /home/annexhou/public_html/liposales.com/wp-includes/class-wp-hook.php(310): WP_Hook->apply_filters('', Array)
#2 /home/annexhou/public_html/liposales.com/wp-includes/plugin.php(465): WP_Hook->do_action(Array)
#3 /home/annexhou/public_html/liposales.com/wp-content/themes/liposales/centaur/modal/content-body.php(18): do_action('cm_woo_get_thum...')
#4 /home/annexhou/public_html/liposales.com/wp-content/plugins/woocommerce-centaur-addon/includes/class-woocommerce-centaur-addon-template.php(94): include('/home/annexhou/...')
#5 /home/annexhou/public_html/liposales.com/wp-content/plugins/woocommerce-centaur-addon/includes/class-woocommerce-centaur-addon-tem in /home/annexhou/public_html/liposales.com/wp-content/plugins/woocommerce-centaur-addon/includes/class-woocommerce-centaur-addon-public.php on line 180

2019-09-15T09:59:02+00:00 CRITICAL Uncaught Error: Call to a member function get_image() on null in /home/annexhou/public_html/liposales.com/wp-content/plugins/woocommerce-centaur-addon/includes/class-woocommerce-centaur-addon-public.php:180
Stack trace:
#0 /home/annexhou/public_html/liposales.com/wp-includes/class-wp-hook.php(286): Woocommerce_Centaur_Addon_Public->get_product_thumbnail('')
#1 /home/annexhou/public_html/liposales.com/wp-includes/class-wp-hook.php(310): WP_Hook->apply_filters('', Array)
#2 /home/annexhou/public_html/liposales.com/wp-includes/plugin.php(465): WP_Hook->do_action(Array)
#3 /home/annexhou/public_html/liposales.com/wp-content/themes/liposales/centaur/modal/content-body.php(18): do_action('cm_woo_get_thum...')
#4 /home/annexhou/public_html/liposales.com/wp-content/plugins/woocommerce-centaur-addon/includes/class-woocommerce-centaur-addon-template.php(94): include('/home/annexhou/...')
#5 /home/annexhou/public_html/liposales.com/wp-content/plugins/woocommerce-centaur-addon/includes/class-woocommerce-centaur-addon-tem in /home/annexhou/public_html/liposales.com/wp-content/plugins/woocommerce-centaur-addon/includes/class-woocommerce-centaur-addon-public.php on line 180

2019-09-15T10:20:05+00:00 CRITICAL Uncaught Error: Call to a member function get_image() on null in /home/annexhou/public_html/liposales.com/wp-content/plugins/woocommerce-centaur-addon/includes/class-woocommerce-centaur-addon-public.php:180
Stack trace:
#0 /home/annexhou/public_html/liposales.com/wp-includes/class-wp-hook.php(286): Woocommerce_Centaur_Addon_Public->get_product_thumbnail('')
#1 /home/annexhou/public_html/liposales.com/wp-includes/class-wp-hook.php(310): WP_Hook->apply_filters('', Array)
#2 /home/annexhou/public_html/liposales.com/wp-includes/plugin.php(465): WP_Hook->do_action(Array)
#3 /home/annexhou/public_html/liposales.com/wp-content/themes/liposales/centaur/modal/content-body.php(18): do_action('cm_woo_get_thum...')
#4 /home/annexhou/public_html/liposales.com/wp-content/plugins/woocommerce-centaur-addon/includes/class-woocommerce-centaur-addon-template.php(94): include('/home/annexhou/...')
#5 /home/annexhou/public_html/liposales.com/wp-content/plugins/woocommerce-centaur-addon/includes/class-woocommerce-centaur-addon-tem in /home/annexhou/public_html/liposales.com/wp-content/plugins/woocommerce-centaur-addon/includes/class-woocommerce-centaur-addon-public.php on line 180

2019-09-15T10:29:54+00:00 CRITICAL Uncaught Error: Call to a member function get_image() on null in /home/annexhou/public_html/liposales.com/wp-content/plugins/woocommerce-centaur-addon/includes/class-woocommerce-centaur-addon-public.php:180
Stack trace:
#0 /home/annexhou/public_html/liposales.com/wp-includes/class-wp-hook.php(286): Woocommerce_Centaur_Addon_Public->get_product_thumbnail('')
#1 /home/annexhou/public_html/liposales.com/wp-includes/class-wp-hook.php(310): WP_Hook->apply_filters('', Array)
#2 /home/annexhou/public_html/liposales.com/wp-includes/plugin.php(465): WP_Hook->do_action(Array)
#3 /home/annexhou/public_html/liposales.com/wp-content/themes/liposales/centaur/modal/content-body.php(18): do_action('cm_woo_get_thum...')
#4 /home/annexhou/public_html/liposales.com/wp-content/plugins/woocommerce-centaur-addon/includes/class-woocommerce-centaur-addon-template.php(94): include('/home/annexhou/...')
#5 /home/annexhou/public_html/liposales.com/wp-content/plugins/woocommerce-centaur-addon/includes/class-woocommerce-centaur-addon-tem in /home/annexhou/public_html/liposales.com/wp-content/plugins/woocommerce-centaur-addon/includes/class-woocommerce-centaur-addon-public.php on line 180

2019-09-15T10:33:44+00:00 CRITICAL Uncaught Error: Call to a member function get_image() on null in /home/annexhou/public_html/liposales.com/wp-content/plugins/woocommerce-centaur-addon/includes/class-woocommerce-centaur-addon-public.php:180
Stack trace:
#0 /home/annexhou/public_html/liposales.com/wp-includes/class-wp-hook.php(286): Woocommerce_Centaur_Addon_Public->get_product_thumbnail('')
#1 /home/annexhou/public_html/liposales.com/wp-includes/class-wp-hook.php(310): WP_Hook->apply_filters('', Array)
#2 /home/annexhou/public_html/liposales.com/wp-includes/plugin.php(465): WP_Hook->do_action(Array)
#3 /home/annexhou/public_html/liposales.com/wp-content/themes/liposales/centaur/modal/content-body.php(18): do_action('cm_woo_get_thum...')
#4 /home/annexhou/public_html/liposales.com/wp-content/plugins/woocommerce-centaur-addon/includes/class-woocommerce-centaur-addon-template.php(94): include('/home/annexhou/...')
#5 /home/annexhou/public_html/liposales.com/wp-content/plugins/woocommerce-centaur-addon/includes/class-woocommerce-centaur-addon-tem in /home/annexhou/public_html/liposales.com/wp-content/plugins/woocommerce-centaur-addon/includes/class-woocommerce-centaur-addon-public.php on line 180

2019-09-15T10:50:02+00:00 CRITICAL Uncaught Error: Call to a member function get_image() on null in /home/annexhou/public_html/liposales.com/wp-content/plugins/woocommerce-centaur-addon/includes/class-woocommerce-centaur-addon-public.php:180
Stack trace:
#0 /home/annexhou/public_html/liposales.com/wp-includes/class-wp-hook.php(286): Woocommerce_Centaur_Addon_Public->get_product_thumbnail('')
#1 /home/annexhou/public_html/liposales.com/wp-includes/class-wp-hook.php(310): WP_Hook->apply_filters('', Array)
#2 /home/annexhou/public_html/liposales.com/wp-includes/plugin.php(465): WP_Hook->do_action(Array)
#3 /home/annexhou/public_html/liposales.com/wp-content/themes/liposales/centaur/modal/content-body.php(18): do_action('cm_woo_get_thum...')
#4 /home/annexhou/public_html/liposales.com/wp-content/plugins/woocommerce-centaur-addon/includes/class-woocommerce-centaur-addon-template.php(94): include('/home/annexhou/...')
#5 /home/annexhou/public_html/liposales.com/wp-content/plugins/woocommerce-centaur-addon/includes/class-woocommerce-centaur-addon-tem in /home/annexhou/public_html/liposales.com/wp-content/plugins/woocommerce-centaur-addon/includes/class-woocommerce-centaur-addon-public.php on line 180

2019-09-15T11:03:49+00:00 CRITICAL Uncaught Error: Call to a member function get_image() on null in /home/annexhou/public_html/liposales.com/wp-content/plugins/woocommerce-centaur-addon/includes/class-woocommerce-centaur-addon-public.php:180
Stack trace:
#0 /home/annexhou/public_html/liposales.com/wp-includes/class-wp-hook.php(286): Woocommerce_Centaur_Addon_Public->get_product_thumbnail('')
#1 /home/annexhou/public_html/liposales.com/wp-includes/class-wp-hook.php(310): WP_Hook->apply_filters('', Array)
#2 /home/annexhou/public_html/liposales.com/wp-includes/plugin.php(465): WP_Hook->do_action(Array)
#3 /home/annexhou/public_html/liposales.com/wp-content/themes/liposales/centaur/modal/content-body.php(18): do_action('cm_woo_get_thum...')
#4 /home/annexhou/public_html/liposales.com/wp-content/plugins/woocommerce-centaur-addon/includes/class-woocommerce-centaur-addon-template.php(94): include('/home/annexhou/...')
#5 /home/annexhou/public_html/liposales.com/wp-content/plugins/woocommerce-centaur-addon/includes/class-woocommerce-centaur-addon-tem in /home/annexhou/public_html/liposales.com/wp-content/plugins/woocommerce-centaur-addon/includes/class-woocommerce-centaur-addon-public.php on line 180

2019-09-15T11:31:26+00:00 CRITICAL Uncaught Error: Call to a member function get_image() on null in /home/annexhou/public_html/liposales.com/wp-content/plugins/woocommerce-centaur-addon/includes/class-woocommerce-centaur-addon-public.php:180
Stack trace:
#0 /home/annexhou/public_html/liposales.com/wp-includes/class-wp-hook.php(286): Woocommerce_Centaur_Addon_Public->get_product_thumbnail('')
#1 /home/annexhou/public_html/liposales.com/wp-includes/class-wp-hook.php(310): WP_Hook->apply_filters('', Array)
#2 /home/annexhou/public_html/liposales.com/wp-includes/plugin.php(465): WP_Hook->do_action(Array)
#3 /home/annexhou/public_html/liposales.com/wp-content/themes/liposales/centaur/modal/content-body.php(18): do_action('cm_woo_get_thum...')
#4 /home/annexhou/public_html/liposales.com/wp-content/plugins/woocommerce-centaur-addon/includes/class-woocommerce-centaur-addon-template.php(94): include('/home/annexhou/...')
#5 /home/annexhou/public_html/liposales.com/wp-content/plugins/woocommerce-centaur-addon/includes/class-woocommerce-centaur-addon-tem in /home/annexhou/public_html/liposales.com/wp-content/plugins/woocommerce-centaur-addon/includes/class-woocommerce-centaur-addon-public.php on line 180

2019-09-15T11:36:49+00:00 CRITICAL Uncaught Error: Call to a member function get_image() on null in /home/annexhou/public_html/liposales.com/wp-content/plugins/woocommerce-centaur-addon/includes/class-woocommerce-centaur-addon-public.php:180
Stack trace:
#0 /home/annexhou/public_html/liposales.com/wp-includes/class-wp-hook.php(286): Woocommerce_Centaur_Addon_Public->get_product_thumbnail('')
#1 /home/annexhou/public_html/liposales.com/wp-includes/class-wp-hook.php(310): WP_Hook->apply_filters('', Array)
#2 /home/annexhou/public_html/liposales.com/wp-includes/plugin.php(465): WP_Hook->do_action(Array)
#3 /home/annexhou/public_html/liposales.com/wp-content/themes/liposales/centaur/modal/content-body.php(18): do_action('cm_woo_get_thum...')
#4 /home/annexhou/public_html/liposales.com/wp-content/plugins/woocommerce-centaur-addon/includes/class-woocommerce-centaur-addon-template.php(94): include('/home/annexhou/...')
#5 /home/annexhou/public_html/liposales.com/wp-content/plugins/woocommerce-centaur-addon/includes/class-woocommerce-centaur-addon-tem in /home/annexhou/public_html/liposales.com/wp-content/plugins/woocommerce-centaur-addon/includes/class-woocommerce-centaur-addon-public.php on line 180

2019-09-15T11:51:13+00:00 CRITICAL Uncaught Error: Call to a member function get_image() on null in /home/annexhou/public_html/liposales.com/wp-content/plugins/woocommerce-centaur-addon/includes/class-woocommerce-centaur-addon-public.php:180
Stack trace:
#0 /home/annexhou/public_html/liposales.com/wp-includes/class-wp-hook.php(286): Woocommerce_Centaur_Addon_Public->get_product_thumbnail('')
#1 /home/annexhou/public_html/liposales.com/wp-includes/class-wp-hook.php(310): WP_Hook->apply_filters('', Array)
#2 /home/annexhou/public_html/liposales.com/wp-includes/plugin.php(465): WP_Hook->do_action(Array)
#3 /home/annexhou/public_html/liposales.com/wp-content/themes/liposales/centaur/modal/content-body.php(18): do_action('cm_woo_get_thum...')
#4 /home/annexhou/public_html/liposales.com/wp-content/plugins/woocommerce-centaur-addon/includes/class-woocommerce-centaur-addon-template.php(94): include('/home/annexhou/...')
#5 /home/annexhou/public_html/liposales.com/wp-content/plugins/woocommerce-centaur-addon/includes/class-woocommerce-centaur-addon-tem in /home/annexhou/public_html/liposales.com/wp-content/plugins/woocommerce-centaur-addon/includes/class-woocommerce-centaur-addon-public.php on line 180

2019-09-15T12:20:47+00:00 CRITICAL Uncaught Error: Call to a member function get_image() on null in /home/annexhou/public_html/liposales.com/wp-content/plugins/woocommerce-centaur-addon/includes/class-woocommerce-centaur-addon-public.php:180
Stack trace:
#0 /home/annexhou/public_html/liposales.com/wp-includes/class-wp-hook.php(286): Woocommerce_Centaur_Addon_Public->get_product_thumbnail('')
#1 /home/annexhou/public_html/liposales.com/wp-includes/class-wp-hook.php(310): WP_Hook->apply_filters('', Array)
#2 /home/annexhou/public_html/liposales.com/wp-includes/plugin.php(465): WP_Hook->do_action(Array)
#3 /home/annexhou/public_html/liposales.com/wp-content/themes/liposales/centaur/modal/content-body.php(18): do_action('cm_woo_get_thum...')
#4 /home/annexhou/public_html/liposales.com/wp-content/plugins/woocommerce-centaur-addon/includes/class-woocommerce-centaur-addon-template.php(94): include('/home/annexhou/...')
#5 /home/annexhou/public_html/liposales.com/wp-content/plugins/woocommerce-centaur-addon/includes/class-woocommerce-centaur-addon-tem in /home/annexhou/public_html/liposales.com/wp-content/plugins/woocommerce-centaur-addon/includes/class-woocommerce-centaur-addon-public.php on line 180

2019-09-15T12:20:49+00:00 CRITICAL Uncaught Error: Call to a member function get_image() on null in /home/annexhou/public_html/liposales.com/wp-content/plugins/woocommerce-centaur-addon/includes/class-woocommerce-centaur-addon-public.php:180
Stack trace:
#0 /home/annexhou/public_html/liposales.com/wp-includes/class-wp-hook.php(286): Woocommerce_Centaur_Addon_Public->get_product_thumbnail('')
#1 /home/annexhou/public_html/liposales.com/wp-includes/class-wp-hook.php(310): WP_Hook->apply_filters('', Array)
#2 /home/annexhou/public_html/liposales.com/wp-includes/plugin.php(465): WP_Hook->do_action(Array)
#3 /home/annexhou/public_html/liposales.com/wp-content/themes/liposales/centaur/modal/content-body.php(18): do_action('cm_woo_get_thum...')
#4 /home/annexhou/public_html/liposales.com/wp-content/plugins/woocommerce-centaur-addon/includes/class-woocommerce-centaur-addon-template.php(94): include('/home/annexhou/...')
#5 /home/annexhou/public_html/liposales.com/wp-content/plugins/woocommerce-centaur-addon/includes/class-woocommerce-centaur-addon-tem in /home/annexhou/public_html/liposales.com/wp-content/plugins/woocommerce-centaur-addon/includes/class-woocommerce-centaur-addon-public.php on line 180

2019-09-15T12:20:55+00:00 CRITICAL Uncaught Error: Call to a member function get_image() on null in /home/annexhou/public_html/liposales.com/wp-content/plugins/woocommerce-centaur-addon/includes/class-woocommerce-centaur-addon-public.php:180
Stack trace:
#0 /home/annexhou/public_html/liposales.com/wp-includes/class-wp-hook.php(286): Woocommerce_Centaur_Addon_Public->get_product_thumbnail('')
#1 /home/annexhou/public_html/liposales.com/wp-includes/class-wp-hook.php(310): WP_Hook->apply_filters('', Array)
#2 /home/annexhou/public_html/liposales.com/wp-includes/plugin.php(465): WP_Hook->do_action(Array)
#3 /home/annexhou/public_html/liposales.com/wp-content/themes/liposales/centaur/modal/content-body.php(18): do_action('cm_woo_get_thum...')
#4 /home/annexhou/public_html/liposales.com/wp-content/plugins/woocommerce-centaur-addon/includes/class-woocommerce-centaur-addon-template.php(94): include('/home/annexhou/...')
#5 /home/annexhou/public_html/liposales.com/wp-content/plugins/woocommerce-centaur-addon/includes/class-woocommerce-centaur-addon-tem in /home/annexhou/public_html/liposales.com/wp-content/plugins/woocommerce-centaur-addon/includes/class-woocommerce-centaur-addon-public.php on line 180

2019-09-15T12:21:47+00:00 CRITICAL Uncaught Error: Call to a member function get_image() on null in /home/annexhou/public_html/liposales.com/wp-content/plugins/woocommerce-centaur-addon/includes/class-woocommerce-centaur-addon-public.php:180
Stack trace:
#0 /home/annexhou/public_html/liposales.com/wp-includes/class-wp-hook.php(286): Woocommerce_Centaur_Addon_Public->get_product_thumbnail('')
#1 /home/annexhou/public_html/liposales.com/wp-includes/class-wp-hook.php(310): WP_Hook->apply_filters('', Array)
#2 /home/annexhou/public_html/liposales.com/wp-includes/plugin.php(465): WP_Hook->do_action(Array)
#3 /home/annexhou/public_html/liposales.com/wp-content/themes/liposales/centaur/modal/content-body.php(18): do_action('cm_woo_get_thum...')
#4 /home/annexhou/public_html/liposales.com/wp-content/plugins/woocommerce-centaur-addon/includes/class-woocommerce-centaur-addon-template.php(94): include('/home/annexhou/...')
#5 /home/annexhou/public_html/liposales.com/wp-content/plugins/woocommerce-centaur-addon/includes/class-woocommerce-centaur-addon-tem in /home/annexhou/public_html/liposales.com/wp-content/plugins/woocommerce-centaur-addon/includes/class-woocommerce-centaur-addon-public.php on line 180

2019-09-15T12:25:28+00:00 CRITICAL Uncaught Error: Call to a member function get_image() on null in /home/annexhou/public_html/liposales.com/wp-content/plugins/woocommerce-centaur-addon/includes/class-woocommerce-centaur-addon-public.php:180
Stack trace:
#0 /home/annexhou/public_html/liposales.com/wp-includes/class-wp-hook.php(286): Woocommerce_Centaur_Addon_Public->get_product_thumbnail('')
#1 /home/annexhou/public_html/liposales.com/wp-includes/class-wp-hook.php(310): WP_Hook->apply_filters('', Array)
#2 /home/annexhou/public_html/liposales.com/wp-includes/plugin.php(465): WP_Hook->do_action(Array)
#3 /home/annexhou/public_html/liposales.com/wp-content/themes/liposales/centaur/modal/content-body.php(18): do_action('cm_woo_get_thum...')
#4 /home/annexhou/public_html/liposales.com/wp-content/plugins/woocommerce-centaur-addon/includes/class-woocommerce-centaur-addon-template.php(94): include('/home/annexhou/...')
#5 /home/annexhou/public_html/liposales.com/wp-content/plugins/woocommerce-centaur-addon/includes/class-woocommerce-centaur-addon-tem in /home/annexhou/public_html/liposales.com/wp-content/plugins/woocommerce-centaur-addon/includes/class-woocommerce-centaur-addon-public.php on line 180

2019-09-15T12:25:31+00:00 CRITICAL Uncaught Error: Call to a member function get_image() on null in /home/annexhou/public_html/liposales.com/wp-content/plugins/woocommerce-centaur-addon/includes/class-woocommerce-centaur-addon-public.php:180
Stack trace:
#0 /home/annexhou/public_html/liposales.com/wp-includes/class-wp-hook.php(286): Woocommerce_Centaur_Addon_Public->get_product_thumbnail('')
#1 /home/annexhou/public_html/liposales.com/wp-includes/class-wp-hook.php(310): WP_Hook->apply_filters('', Array)
#2 /home/annexhou/public_html/liposales.com/wp-includes/plugin.php(465): WP_Hook->do_action(Array)
#3 /home/annexhou/public_html/liposales.com/wp-content/themes/liposales/centaur/modal/content-body.php(18): do_action('cm_woo_get_thum...')
#4 /home/annexhou/public_html/liposales.com/wp-content/plugins/woocommerce-centaur-addon/includes/class-woocommerce-centaur-addon-template.php(94): include('/home/annexhou/...')
#5 /home/annexhou/public_html/liposales.com/wp-content/plugins/woocommerce-centaur-addon/includes/class-woocommerce-centaur-addon-tem in /home/annexhou/public_html/liposales.com/wp-content/plugins/woocommerce-centaur-addon/includes/class-woocommerce-centaur-addon-public.php on line 180

2019-09-15T12:25:37+00:00 CRITICAL Uncaught Error: Call to a member function get_image() on null in /home/annexhou/public_html/liposales.com/wp-content/plugins/woocommerce-centaur-addon/includes/class-woocommerce-centaur-addon-public.php:180
Stack trace:
#0 /home/annexhou/public_html/liposales.com/wp-includes/class-wp-hook.php(286): Woocommerce_Centaur_Addon_Public->get_product_thumbnail('')
#1 /home/annexhou/public_html/liposales.com/wp-includes/class-wp-hook.php(310): WP_Hook->apply_filters('', Array)
#2 /home/annexhou/public_html/liposales.com/wp-includes/plugin.php(465): WP_Hook->do_action(Array)
#3 /home/annexhou/public_html/liposales.com/wp-content/themes/liposales/centaur/modal/content-body.php(18): do_action('cm_woo_get_thum...')
#4 /home/annexhou/public_html/liposales.com/wp-content/plugins/woocommerce-centaur-addon/includes/class-woocommerce-centaur-addon-template.php(94): include('/home/annexhou/...')
#5 /home/annexhou/public_html/liposales.com/wp-content/plugins/woocommerce-centaur-addon/includes/class-woocommerce-centaur-addon-tem in /home/annexhou/public_html/liposales.com/wp-content/plugins/woocommerce-centaur-addon/includes/class-woocommerce-centaur-addon-public.php on line 180

2019-09-15T12:25:40+00:00 CRITICAL Uncaught Error: Call to a member function get_image() on null in /home/annexhou/public_html/liposales.com/wp-content/plugins/woocommerce-centaur-addon/includes/class-woocommerce-centaur-addon-public.php:180
Stack trace:
#0 /home/annexhou/public_html/liposales.com/wp-includes/class-wp-hook.php(286): Woocommerce_Centaur_Addon_Public->get_product_thumbnail('')
#1 /home/annexhou/public_html/liposales.com/wp-includes/class-wp-hook.php(310): WP_Hook->apply_filters('', Array)
#2 /home/annexhou/public_html/liposales.com/wp-includes/plugin.php(465): WP_Hook->do_action(Array)
#3 /home/annexhou/public_html/liposales.com/wp-content/themes/liposales/centaur/modal/content-body.php(18): do_action('cm_woo_get_thum...')
#4 /home/annexhou/public_html/liposales.com/wp-content/plugins/woocommerce-centaur-addon/includes/class-woocommerce-centaur-addon-template.php(94): include('/home/annexhou/...')
#5 /home/annexhou/public_html/liposales.com/wp-content/plugins/woocommerce-centaur-addon/includes/class-woocommerce-centaur-addon-tem in /home/annexhou/public_html/liposales.com/wp-content/plugins/woocommerce-centaur-addon/includes/class-woocommerce-centaur-addon-public.php on line 180

2019-09-15T12:25:46+00:00 CRITICAL Uncaught Error: Call to a member function get_image() on null in /home/annexhou/public_html/liposales.com/wp-content/plugins/woocommerce-centaur-addon/includes/class-woocommerce-centaur-addon-public.php:180
Stack trace:
#0 /home/annexhou/public_html/liposales.com/wp-includes/class-wp-hook.php(286): Woocommerce_Centaur_Addon_Public->get_product_thumbnail('')
#1 /home/annexhou/public_html/liposales.com/wp-includes/class-wp-hook.php(310): WP_Hook->apply_filters('', Array)
#2 /home/annexhou/public_html/liposales.com/wp-includes/plugin.php(465): WP_Hook->do_action(Array)
#3 /home/annexhou/public_html/liposales.com/wp-content/themes/liposales/centaur/modal/content-body.php(18): do_action('cm_woo_get_thum...')
#4 /home/annexhou/public_html/liposales.com/wp-content/plugins/woocommerce-centaur-addon/includes/class-woocommerce-centaur-addon-template.php(94): include('/home/annexhou/...')
#5 /home/annexhou/public_html/liposales.com/wp-content/plugins/woocommerce-centaur-addon/includes/class-woocommerce-centaur-addon-tem in /home/annexhou/public_html/liposales.com/wp-content/plugins/woocommerce-centaur-addon/includes/class-woocommerce-centaur-addon-public.php on line 180

2019-09-15T12:26:48+00:00 CRITICAL Uncaught Error: Call to a member function get_image() on null in /home/annexhou/public_html/liposales.com/wp-content/plugins/woocommerce-centaur-addon/includes/class-woocommerce-centaur-addon-public.php:180
Stack trace:
#0 /home/annexhou/public_html/liposales.com/wp-includes/class-wp-hook.php(286): Woocommerce_Centaur_Addon_Public->get_product_thumbnail('')
#1 /home/annexhou/public_html/liposales.com/wp-includes/class-wp-hook.php(310): WP_Hook->apply_filters('', Array)
#2 /home/annexhou/public_html/liposales.com/wp-includes/plugin.php(465): WP_Hook->do_action(Array)
#3 /home/annexhou/public_html/liposales.com/wp-content/themes/liposales/centaur/modal/content-body.php(18): do_action('cm_woo_get_thum...')
#4 /home/annexhou/public_html/liposales.com/wp-content/plugins/woocommerce-centaur-addon/includes/class-woocommerce-centaur-addon-template.php(94): include('/home/annexhou/...')
#5 /home/annexhou/public_html/liposales.com/wp-content/plugins/woocommerce-centaur-addon/includes/class-woocommerce-centaur-addon-tem in /home/annexhou/public_html/liposales.com/wp-content/plugins/woocommerce-centaur-addon/includes/class-woocommerce-centaur-addon-public.php on line 180

2019-09-15T12:41:28+00:00 CRITICAL Uncaught Error: Call to a member function get_image() on null in /home/annexhou/public_html/liposales.com/wp-content/plugins/woocommerce-centaur-addon/includes/class-woocommerce-centaur-addon-public.php:180
Stack trace:
#0 /home/annexhou/public_html/liposales.com/wp-includes/class-wp-hook.php(286): Woocommerce_Centaur_Addon_Public->get_product_thumbnail('')
#1 /home/annexhou/public_html/liposales.com/wp-includes/class-wp-hook.php(310): WP_Hook->apply_filters('', Array)
#2 /home/annexhou/public_html/liposales.com/wp-includes/plugin.php(465): WP_Hook->do_action(Array)
#3 /home/annexhou/public_html/liposales.com/wp-content/themes/liposales/centaur/modal/content-body.php(18): do_action('cm_woo_get_thum...')
#4 /home/annexhou/public_html/liposales.com/wp-content/plugins/woocommerce-centaur-addon/includes/class-woocommerce-centaur-addon-template.php(94): include('/home/annexhou/...')
#5 /home/annexhou/public_html/liposales.com/wp-content/plugins/woocommerce-centaur-addon/includes/class-woocommerce-centaur-addon-tem in /home/annexhou/public_html/liposales.com/wp-content/plugins/woocommerce-centaur-addon/includes/class-woocommerce-centaur-addon-public.php on line 180

2019-09-15T12:41:36+00:00 CRITICAL Uncaught Error: Call to a member function get_image() on null in /home/annexhou/public_html/liposales.com/wp-content/plugins/woocommerce-centaur-addon/includes/class-woocommerce-centaur-addon-public.php:180
Stack trace:
#0 /home/annexhou/public_html/liposales.com/wp-includes/class-wp-hook.php(286): Woocommerce_Centaur_Addon_Public->get_product_thumbnail('')
#1 /home/annexhou/public_html/liposales.com/wp-includes/class-wp-hook.php(310): WP_Hook->apply_filters('', Array)
#2 /home/annexhou/public_html/liposales.com/wp-includes/plugin.php(465): WP_Hook->do_action(Array)
#3 /home/annexhou/public_html/liposales.com/wp-content/themes/liposales/centaur/modal/content-body.php(18): do_action('cm_woo_get_thum...')
#4 /home/annexhou/public_html/liposales.com/wp-content/plugins/woocommerce-centaur-addon/includes/class-woocommerce-centaur-addon-template.php(94): include('/home/annexhou/...')
#5 /home/annexhou/public_html/liposales.com/wp-content/plugins/woocommerce-centaur-addon/includes/class-woocommerce-centaur-addon-tem in /home/annexhou/public_html/liposales.com/wp-content/plugins/woocommerce-centaur-addon/includes/class-woocommerce-centaur-addon-public.php on line 180

2019-09-15T12:52:23+00:00 CRITICAL Uncaught Error: Call to a member function get_image() on null in /home/annexhou/public_html/liposales.com/wp-content/plugins/woocommerce-centaur-addon/includes/class-woocommerce-centaur-addon-public.php:180
Stack trace:
#0 /home/annexhou/public_html/liposales.com/wp-includes/class-wp-hook.php(286): Woocommerce_Centaur_Addon_Public->get_product_thumbnail('')
#1 /home/annexhou/public_html/liposales.com/wp-includes/class-wp-hook.php(310): WP_Hook->apply_filters('', Array)
#2 /home/annexhou/public_html/liposales.com/wp-includes/plugin.php(465): WP_Hook->do_action(Array)
#3 /home/annexhou/public_html/liposales.com/wp-content/themes/liposales/centaur/modal/content-body.php(18): do_action('cm_woo_get_thum...')
#4 /home/annexhou/public_html/liposales.com/wp-content/plugins/woocommerce-centaur-addon/includes/class-woocommerce-centaur-addon-template.php(94): include('/home/annexhou/...')
#5 /home/annexhou/public_html/liposales.com/wp-content/plugins/woocommerce-centaur-addon/includes/class-woocommerce-centaur-addon-tem in /home/annexhou/public_html/liposales.com/wp-content/plugins/woocommerce-centaur-addon/includes/class-woocommerce-centaur-addon-public.php on line 180

2019-09-15T12:53:13+00:00 CRITICAL Uncaught Error: Call to a member function get_image() on null in /home/annexhou/public_html/liposales.com/wp-content/plugins/woocommerce-centaur-addon/includes/class-woocommerce-centaur-addon-public.php:180
Stack trace:
#0 /home/annexhou/public_html/liposales.com/wp-includes/class-wp-hook.php(286): Woocommerce_Centaur_Addon_Public->get_product_thumbnail('')
#1 /home/annexhou/public_html/liposales.com/wp-includes/class-wp-hook.php(310): WP_Hook->apply_filters('', Array)
#2 /home/annexhou/public_html/liposales.com/wp-includes/plugin.php(465): WP_Hook->do_action(Array)
#3 /home/annexhou/public_html/liposales.com/wp-content/themes/liposales/centaur/modal/content-body.php(18): do_action('cm_woo_get_thum...')
#4 /home/annexhou/public_html/liposales.com/wp-content/plugins/woocommerce-centaur-addon/includes/class-woocommerce-centaur-addon-template.php(94): include('/home/annexhou/...')
#5 /home/annexhou/public_html/liposales.com/wp-content/plugins/woocommerce-centaur-addon/includes/class-woocommerce-centaur-addon-tem in /home/annexhou/public_html/liposales.com/wp-content/plugins/woocommerce-centaur-addon/includes/class-woocommerce-centaur-addon-public.php on line 180

2019-09-15T12:55:05+00:00 CRITICAL Uncaught Error: Call to a member function get_image() on null in /home/annexhou/public_html/liposales.com/wp-content/plugins/woocommerce-centaur-addon/includes/class-woocommerce-centaur-addon-public.php:180
Stack trace:
#0 /home/annexhou/public_html/liposales.com/wp-includes/class-wp-hook.php(286): Woocommerce_Centaur_Addon_Public->get_product_thumbnail('')
#1 /home/annexhou/public_html/liposales.com/wp-includes/class-wp-hook.php(310): WP_Hook->apply_filters('', Array)
#2 /home/annexhou/public_html/liposales.com/wp-includes/plugin.php(465): WP_Hook->do_action(Array)
#3 /home/annexhou/public_html/liposales.com/wp-content/themes/liposales/centaur/modal/content-body.php(18): do_action('cm_woo_get_thum...')
#4 /home/annexhou/public_html/liposales.com/wp-content/plugins/woocommerce-centaur-addon/includes/class-woocommerce-centaur-addon-template.php(94): include('/home/annexhou/...')
#5 /home/annexhou/public_html/liposales.com/wp-content/plugins/woocommerce-centaur-addon/includes/class-woocommerce-centaur-addon-tem in /home/annexhou/public_html/liposales.com/wp-content/plugins/woocommerce-centaur-addon/includes/class-woocommerce-centaur-addon-public.php on line 180

2019-09-15T12:55:17+00:00 CRITICAL Uncaught Error: Call to a member function get_image() on null in /home/annexhou/public_html/liposales.com/wp-content/plugins/woocommerce-centaur-addon/includes/class-woocommerce-centaur-addon-public.php:180
Stack trace:
#0 /home/annexhou/public_html/liposales.com/wp-includes/class-wp-hook.php(286): Woocommerce_Centaur_Addon_Public->get_product_thumbnail('')
#1 /home/annexhou/public_html/liposales.com/wp-includes/class-wp-hook.php(310): WP_Hook->apply_filters('', Array)
#2 /home/annexhou/public_html/liposales.com/wp-includes/plugin.php(465): WP_Hook->do_action(Array)
#3 /home/annexhou/public_html/liposales.com/wp-content/themes/liposales/centaur/modal/content-body.php(18): do_action('cm_woo_get_thum...')
#4 /home/annexhou/public_html/liposales.com/wp-content/plugins/woocommerce-centaur-addon/includes/class-woocommerce-centaur-addon-template.php(94): include('/home/annexhou/...')
#5 /home/annexhou/public_html/liposales.com/wp-content/plugins/woocommerce-centaur-addon/includes/class-woocommerce-centaur-addon-tem in /home/annexhou/public_html/liposales.com/wp-content/plugins/woocommerce-centaur-addon/includes/class-woocommerce-centaur-addon-public.php on line 180

2019-09-15T13:22:00+00:00 CRITICAL Uncaught Error: Call to a member function get_image() on null in /home/annexhou/public_html/liposales.com/wp-content/plugins/woocommerce-centaur-addon/includes/class-woocommerce-centaur-addon-public.php:180
Stack trace:
#0 /home/annexhou/public_html/liposales.com/wp-includes/class-wp-hook.php(286): Woocommerce_Centaur_Addon_Public->get_product_thumbnail('')
#1 /home/annexhou/public_html/liposales.com/wp-includes/class-wp-hook.php(310): WP_Hook->apply_filters('', Array)
#2 /home/annexhou/public_html/liposales.com/wp-includes/plugin.php(465): WP_Hook->do_action(Array)
#3 /home/annexhou/public_html/liposales.com/wp-content/themes/liposales/centaur/modal/content-body.php(18): do_action('cm_woo_get_thum...')
#4 /home/annexhou/public_html/liposales.com/wp-content/plugins/woocommerce-centaur-addon/includes/class-woocommerce-centaur-addon-template.php(94): include('/home/annexhou/...')
#5 /home/annexhou/public_html/liposales.com/wp-content/plugins/woocommerce-centaur-addon/includes/class-woocommerce-centaur-addon-tem in /home/annexhou/public_html/liposales.com/wp-content/plugins/woocommerce-centaur-addon/includes/class-woocommerce-centaur-addon-public.php on line 180

2019-09-15T13:51:08+00:00 CRITICAL Uncaught Error: Call to a member function get_image() on null in /home/annexhou/public_html/liposales.com/wp-content/plugins/woocommerce-centaur-addon/includes/class-woocommerce-centaur-addon-public.php:180
Stack trace:
#0 /home/annexhou/public_html/liposales.com/wp-includes/class-wp-hook.php(286): Woocommerce_Centaur_Addon_Public->get_product_thumbnail('')
#1 /home/annexhou/public_html/liposales.com/wp-includes/class-wp-hook.php(310): WP_Hook->apply_filters('', Array)
#2 /home/annexhou/public_html/liposales.com/wp-includes/plugin.php(465): WP_Hook->do_action(Array)
#3 /home/annexhou/public_html/liposales.com/wp-content/themes/liposales/centaur/modal/content-body.php(18): do_action('cm_woo_get_thum...')
#4 /home/annexhou/public_html/liposales.com/wp-content/plugins/woocommerce-centaur-addon/includes/class-woocommerce-centaur-addon-template.php(94): include('/home/annexhou/...')
#5 /home/annexhou/public_html/liposales.com/wp-content/plugins/woocommerce-centaur-addon/includes/class-woocommerce-centaur-addon-tem in /home/annexhou/public_html/liposales.com/wp-content/plugins/woocommerce-centaur-addon/includes/class-woocommerce-centaur-addon-public.php on line 180

2019-09-15T13:52:05+00:00 CRITICAL Uncaught Error: Call to a member function get_image() on null in /home/annexhou/public_html/liposales.com/wp-content/plugins/woocommerce-centaur-addon/includes/class-woocommerce-centaur-addon-public.php:180
Stack trace:
#0 /home/annexhou/public_html/liposales.com/wp-includes/class-wp-hook.php(286): Woocommerce_Centaur_Addon_Public->get_product_thumbnail('')
#1 /home/annexhou/public_html/liposales.com/wp-includes/class-wp-hook.php(310): WP_Hook->apply_filters('', Array)
#2 /home/annexhou/public_html/liposales.com/wp-includes/plugin.php(465): WP_Hook->do_action(Array)
#3 /home/annexhou/public_html/liposales.com/wp-content/themes/liposales/centaur/modal/content-body.php(18): do_action('cm_woo_get_thum...')
#4 /home/annexhou/public_html/liposales.com/wp-content/plugins/woocommerce-centaur-addon/includes/class-woocommerce-centaur-addon-template.php(94): include('/home/annexhou/...')
#5 /home/annexhou/public_html/liposales.com/wp-content/plugins/woocommerce-centaur-addon/includes/class-woocommerce-centaur-addon-tem in /home/annexhou/public_html/liposales.com/wp-content/plugins/woocommerce-centaur-addon/includes/class-woocommerce-centaur-addon-public.php on line 180

2019-09-15T13:52:51+00:00 CRITICAL Uncaught Error: Call to a member function get_image() on null in /home/annexhou/public_html/liposales.com/wp-content/plugins/woocommerce-centaur-addon/includes/class-woocommerce-centaur-addon-public.php:180
Stack trace:
#0 /home/annexhou/public_html/liposales.com/wp-includes/class-wp-hook.php(286): Woocommerce_Centaur_Addon_Public->get_product_thumbnail('')
#1 /home/annexhou/public_html/liposales.com/wp-includes/class-wp-hook.php(310): WP_Hook->apply_filters('', Array)
#2 /home/annexhou/public_html/liposales.com/wp-includes/plugin.php(465): WP_Hook->do_action(Array)
#3 /home/annexhou/public_html/liposales.com/wp-content/themes/liposales/centaur/modal/content-body.php(18): do_action('cm_woo_get_thum...')
#4 /home/annexhou/public_html/liposales.com/wp-content/plugins/woocommerce-centaur-addon/includes/class-woocommerce-centaur-addon-template.php(94): include('/home/annexhou/...')
#5 /home/annexhou/public_html/liposales.com/wp-content/plugins/woocommerce-centaur-addon/includes/class-woocommerce-centaur-addon-tem in /home/annexhou/public_html/liposales.com/wp-content/plugins/woocommerce-centaur-addon/includes/class-woocommerce-centaur-addon-public.php on line 180

2019-09-15T13:53:36+00:00 CRITICAL Uncaught Error: Call to a member function get_image() on null in /home/annexhou/public_html/liposales.com/wp-content/plugins/woocommerce-centaur-addon/includes/class-woocommerce-centaur-addon-public.php:180
Stack trace:
#0 /home/annexhou/public_html/liposales.com/wp-includes/class-wp-hook.php(286): Woocommerce_Centaur_Addon_Public->get_product_thumbnail('')
#1 /home/annexhou/public_html/liposales.com/wp-includes/class-wp-hook.php(310): WP_Hook->apply_filters('', Array)
#2 /home/annexhou/public_html/liposales.com/wp-includes/plugin.php(465): WP_Hook->do_action(Array)
#3 /home/annexhou/public_html/liposales.com/wp-content/themes/liposales/centaur/modal/content-body.php(18): do_action('cm_woo_get_thum...')
#4 /home/annexhou/public_html/liposales.com/wp-content/plugins/woocommerce-centaur-addon/includes/class-woocommerce-centaur-addon-template.php(94): include('/home/annexhou/...')
#5 /home/annexhou/public_html/liposales.com/wp-content/plugins/woocommerce-centaur-addon/includes/class-woocommerce-centaur-addon-tem in /home/annexhou/public_html/liposales.com/wp-content/plugins/woocommerce-centaur-addon/includes/class-woocommerce-centaur-addon-public.php on line 180

2019-09-15T14:00:46+00:00 CRITICAL Uncaught Error: Call to a member function get_image() on null in /home/annexhou/public_html/liposales.com/wp-content/plugins/woocommerce-centaur-addon/includes/class-woocommerce-centaur-addon-public.php:180
Stack trace:
#0 /home/annexhou/public_html/liposales.com/wp-includes/class-wp-hook.php(286): Woocommerce_Centaur_Addon_Public->get_product_thumbnail('')
#1 /home/annexhou/public_html/liposales.com/wp-includes/class-wp-hook.php(310): WP_Hook->apply_filters('', Array)
#2 /home/annexhou/public_html/liposales.com/wp-includes/plugin.php(465): WP_Hook->do_action(Array)
#3 /home/annexhou/public_html/liposales.com/wp-content/themes/liposales/centaur/modal/content-body.php(18): do_action('cm_woo_get_thum...')
#4 /home/annexhou/public_html/liposales.com/wp-content/plugins/woocommerce-centaur-addon/includes/class-woocommerce-centaur-addon-template.php(94): include('/home/annexhou/...')
#5 /home/annexhou/public_html/liposales.com/wp-content/plugins/woocommerce-centaur-addon/includes/class-woocommerce-centaur-addon-tem in /home/annexhou/public_html/liposales.com/wp-content/plugins/woocommerce-centaur-addon/includes/class-woocommerce-centaur-addon-public.php on line 180

2019-09-15T14:00:50+00:00 CRITICAL Uncaught Error: Call to a member function get_image() on null in /home/annexhou/public_html/liposales.com/wp-content/plugins/woocommerce-centaur-addon/includes/class-woocommerce-centaur-addon-public.php:180
Stack trace:
#0 /home/annexhou/public_html/liposales.com/wp-includes/class-wp-hook.php(286): Woocommerce_Centaur_Addon_Public->get_product_thumbnail('')
#1 /home/annexhou/public_html/liposales.com/wp-includes/class-wp-hook.php(310): WP_Hook->apply_filters('', Array)
#2 /home/annexhou/public_html/liposales.com/wp-includes/plugin.php(465): WP_Hook->do_action(Array)
#3 /home/annexhou/public_html/liposales.com/wp-content/themes/liposales/centaur/modal/content-body.php(18): do_action('cm_woo_get_thum...')
#4 /home/annexhou/public_html/liposales.com/wp-content/plugins/woocommerce-centaur-addon/includes/class-woocommerce-centaur-addon-template.php(94): include('/home/annexhou/...')
#5 /home/annexhou/public_html/liposales.com/wp-content/plugins/woocommerce-centaur-addon/includes/class-woocommerce-centaur-addon-tem in /home/annexhou/public_html/liposales.com/wp-content/plugins/woocommerce-centaur-addon/includes/class-woocommerce-centaur-addon-public.php on line 180

2019-09-15T14:01:19+00:00 CRITICAL Uncaught Error: Call to a member function get_image() on null in /home/annexhou/public_html/liposales.com/wp-content/plugins/woocommerce-centaur-addon/includes/class-woocommerce-centaur-addon-public.php:180
Stack trace:
#0 /home/annexhou/public_html/liposales.com/wp-includes/class-wp-hook.php(286): Woocommerce_Centaur_Addon_Public->get_product_thumbnail('')
#1 /home/annexhou/public_html/liposales.com/wp-includes/class-wp-hook.php(310): WP_Hook->apply_filters('', Array)
#2 /home/annexhou/public_html/liposales.com/wp-includes/plugin.php(465): WP_Hook->do_action(Array)
#3 /home/annexhou/public_html/liposales.com/wp-content/themes/liposales/centaur/modal/content-body.php(18): do_action('cm_woo_get_thum...')
#4 /home/annexhou/public_html/liposales.com/wp-content/plugins/woocommerce-centaur-addon/includes/class-woocommerce-centaur-addon-template.php(94): include('/home/annexhou/...')
#5 /home/annexhou/public_html/liposales.com/wp-content/plugins/woocommerce-centaur-addon/includes/class-woocommerce-centaur-addon-tem in /home/annexhou/public_html/liposales.com/wp-content/plugins/woocommerce-centaur-addon/includes/class-woocommerce-centaur-addon-public.php on line 180

2019-09-15T14:01:35+00:00 CRITICAL Uncaught Error: Call to a member function get_image() on null in /home/annexhou/public_html/liposales.com/wp-content/plugins/woocommerce-centaur-addon/includes/class-woocommerce-centaur-addon-public.php:180
Stack trace:
#0 /home/annexhou/public_html/liposales.com/wp-includes/class-wp-hook.php(286): Woocommerce_Centaur_Addon_Public->get_product_thumbnail('')
#1 /home/annexhou/public_html/liposales.com/wp-includes/class-wp-hook.php(310): WP_Hook->apply_filters('', Array)
#2 /home/annexhou/public_html/liposales.com/wp-includes/plugin.php(465): WP_Hook->do_action(Array)
#3 /home/annexhou/public_html/liposales.com/wp-content/themes/liposales/centaur/modal/content-body.php(18): do_action('cm_woo_get_thum...')
#4 /home/annexhou/public_html/liposales.com/wp-content/plugins/woocommerce-centaur-addon/includes/class-woocommerce-centaur-addon-template.php(94): include('/home/annexhou/...')
#5 /home/annexhou/public_html/liposales.com/wp-content/plugins/woocommerce-centaur-addon/includes/class-woocommerce-centaur-addon-tem in /home/annexhou/public_html/liposales.com/wp-content/plugins/woocommerce-centaur-addon/includes/class-woocommerce-centaur-addon-public.php on line 180

2019-09-15T14:01:38+00:00 CRITICAL Uncaught Error: Call to a member function get_image() on null in /home/annexhou/public_html/liposales.com/wp-content/plugins/woocommerce-centaur-addon/includes/class-woocommerce-centaur-addon-public.php:180
Stack trace:
#0 /home/annexhou/public_html/liposales.com/wp-includes/class-wp-hook.php(286): Woocommerce_Centaur_Addon_Public->get_product_thumbnail('')
#1 /home/annexhou/public_html/liposales.com/wp-includes/class-wp-hook.php(310): WP_Hook->apply_filters('', Array)
#2 /home/annexhou/public_html/liposales.com/wp-includes/plugin.php(465): WP_Hook->do_action(Array)
#3 /home/annexhou/public_html/liposales.com/wp-content/themes/liposales/centaur/modal/content-body.php(18): do_action('cm_woo_get_thum...')
#4 /home/annexhou/public_html/liposales.com/wp-content/plugins/woocommerce-centaur-addon/includes/class-woocommerce-centaur-addon-template.php(94): include('/home/annexhou/...')
#5 /home/annexhou/public_html/liposales.com/wp-content/plugins/woocommerce-centaur-addon/includes/class-woocommerce-centaur-addon-tem in /home/annexhou/public_html/liposales.com/wp-content/plugins/woocommerce-centaur-addon/includes/class-woocommerce-centaur-addon-public.php on line 180

2019-09-15T14:02:46+00:00 CRITICAL Uncaught Error: Call to a member function get_image() on null in /home/annexhou/public_html/liposales.com/wp-content/plugins/woocommerce-centaur-addon/includes/class-woocommerce-centaur-addon-public.php:180
Stack trace:
#0 /home/annexhou/public_html/liposales.com/wp-includes/class-wp-hook.php(286): Woocommerce_Centaur_Addon_Public->get_product_thumbnail('')
#1 /home/annexhou/public_html/liposales.com/wp-includes/class-wp-hook.php(310): WP_Hook->apply_filters('', Array)
#2 /home/annexhou/public_html/liposales.com/wp-includes/plugin.php(465): WP_Hook->do_action(Array)
#3 /home/annexhou/public_html/liposales.com/wp-content/themes/liposales/centaur/modal/content-body.php(18): do_action('cm_woo_get_thum...')
#4 /home/annexhou/public_html/liposales.com/wp-content/plugins/woocommerce-centaur-addon/includes/class-woocommerce-centaur-addon-template.php(94): include('/home/annexhou/...')
#5 /home/annexhou/public_html/liposales.com/wp-content/plugins/woocommerce-centaur-addon/includes/class-woocommerce-centaur-addon-tem in /home/annexhou/public_html/liposales.com/wp-content/plugins/woocommerce-centaur-addon/includes/class-woocommerce-centaur-addon-public.php on line 180

2019-09-15T14:04:06+00:00 CRITICAL Uncaught Error: Call to a member function get_image() on null in /home/annexhou/public_html/liposales.com/wp-content/plugins/woocommerce-centaur-addon/includes/class-woocommerce-centaur-addon-public.php:180
Stack trace:
#0 /home/annexhou/public_html/liposales.com/wp-includes/class-wp-hook.php(286): Woocommerce_Centaur_Addon_Public->get_product_thumbnail('')
#1 /home/annexhou/public_html/liposales.com/wp-includes/class-wp-hook.php(310): WP_Hook->apply_filters('', Array)
#2 /home/annexhou/public_html/liposales.com/wp-includes/plugin.php(465): WP_Hook->do_action(Array)
#3 /home/annexhou/public_html/liposales.com/wp-content/themes/liposales/centaur/modal/content-body.php(18): do_action('cm_woo_get_thum...')
#4 /home/annexhou/public_html/liposales.com/wp-content/plugins/woocommerce-centaur-addon/includes/class-woocommerce-centaur-addon-template.php(94): include('/home/annexhou/...')
#5 /home/annexhou/public_html/liposales.com/wp-content/plugins/woocommerce-centaur-addon/includes/class-woocommerce-centaur-addon-tem in /home/annexhou/public_html/liposales.com/wp-content/plugins/woocommerce-centaur-addon/includes/class-woocommerce-centaur-addon-public.php on line 180

2019-09-15T14:06:38+00:00 CRITICAL Uncaught Error: Call to a member function get_image() on null in /home/annexhou/public_html/liposales.com/wp-content/plugins/woocommerce-centaur-addon/includes/class-woocommerce-centaur-addon-public.php:180
Stack trace:
#0 /home/annexhou/public_html/liposales.com/wp-includes/class-wp-hook.php(286): Woocommerce_Centaur_Addon_Public->get_product_thumbnail('')
#1 /home/annexhou/public_html/liposales.com/wp-includes/class-wp-hook.php(310): WP_Hook->apply_filters('', Array)
#2 /home/annexhou/public_html/liposales.com/wp-includes/plugin.php(465): WP_Hook->do_action(Array)
#3 /home/annexhou/public_html/liposales.com/wp-content/themes/liposales/centaur/modal/content-body.php(18): do_action('cm_woo_get_thum...')
#4 /home/annexhou/public_html/liposales.com/wp-content/plugins/woocommerce-centaur-addon/includes/class-woocommerce-centaur-addon-template.php(94): include('/home/annexhou/...')
#5 /home/annexhou/public_html/liposales.com/wp-content/plugins/woocommerce-centaur-addon/includes/class-woocommerce-centaur-addon-tem in /home/annexhou/public_html/liposales.com/wp-content/plugins/woocommerce-centaur-addon/includes/class-woocommerce-centaur-addon-public.php on line 180

2019-09-15T14:33:41+00:00 CRITICAL Uncaught Error: Call to a member function get_image() on null in /home/annexhou/public_html/liposales.com/wp-content/plugins/woocommerce-centaur-addon/includes/class-woocommerce-centaur-addon-public.php:180
Stack trace:
#0 /home/annexhou/public_html/liposales.com/wp-includes/class-wp-hook.php(286): Woocommerce_Centaur_Addon_Public->get_product_thumbnail('')
#1 /home/annexhou/public_html/liposales.com/wp-includes/class-wp-hook.php(310): WP_Hook->apply_filters('', Array)
#2 /home/annexhou/public_html/liposales.com/wp-includes/plugin.php(465): WP_Hook->do_action(Array)
#3 /home/annexhou/public_html/liposales.com/wp-content/themes/liposales/centaur/modal/content-body.php(18): do_action('cm_woo_get_thum...')
#4 /home/annexhou/public_html/liposales.com/wp-content/plugins/woocommerce-centaur-addon/includes/class-woocommerce-centaur-addon-template.php(94): include('/home/annexhou/...')
#5 /home/annexhou/public_html/liposales.com/wp-content/plugins/woocommerce-centaur-addon/includes/class-woocommerce-centaur-addon-tem in /home/annexhou/public_html/liposales.com/wp-content/plugins/woocommerce-centaur-addon/includes/class-woocommerce-centaur-addon-public.php on line 180

2019-09-15T14:42:11+00:00 CRITICAL Uncaught Error: Call to a member function get_image() on null in /home/annexhou/public_html/liposales.com/wp-content/plugins/woocommerce-centaur-addon/includes/class-woocommerce-centaur-addon-public.php:180
Stack trace:
#0 /home/annexhou/public_html/liposales.com/wp-includes/class-wp-hook.php(286): Woocommerce_Centaur_Addon_Public->get_product_thumbnail('')
#1 /home/annexhou/public_html/liposales.com/wp-includes/class-wp-hook.php(310): WP_Hook->apply_filters('', Array)
#2 /home/annexhou/public_html/liposales.com/wp-includes/plugin.php(465): WP_Hook->do_action(Array)
#3 /home/annexhou/public_html/liposales.com/wp-content/themes/liposales/centaur/modal/content-body.php(18): do_action('cm_woo_get_thum...')
#4 /home/annexhou/public_html/liposales.com/wp-content/plugins/woocommerce-centaur-addon/includes/class-woocommerce-centaur-addon-template.php(94): include('/home/annexhou/...')
#5 /home/annexhou/public_html/liposales.com/wp-content/plugins/woocommerce-centaur-addon/includes/class-woocommerce-centaur-addon-tem in /home/annexhou/public_html/liposales.com/wp-content/plugins/woocommerce-centaur-addon/includes/class-woocommerce-centaur-addon-public.php on line 180

2019-09-15T15:23:18+00:00 CRITICAL Uncaught Error: Call to a member function get_image() on null in /home/annexhou/public_html/liposales.com/wp-content/plugins/woocommerce-centaur-addon/includes/class-woocommerce-centaur-addon-public.php:180
Stack trace:
#0 /home/annexhou/public_html/liposales.com/wp-includes/class-wp-hook.php(286): Woocommerce_Centaur_Addon_Public->get_product_thumbnail('')
#1 /home/annexhou/public_html/liposales.com/wp-includes/class-wp-hook.php(310): WP_Hook->apply_filters('', Array)
#2 /home/annexhou/public_html/liposales.com/wp-includes/plugin.php(465): WP_Hook->do_action(Array)
#3 /home/annexhou/public_html/liposales.com/wp-content/themes/liposales/centaur/modal/content-body.php(18): do_action('cm_woo_get_thum...')
#4 /home/annexhou/public_html/liposales.com/wp-content/plugins/woocommerce-centaur-addon/includes/class-woocommerce-centaur-addon-template.php(94): include('/home/annexhou/...')
#5 /home/annexhou/public_html/liposales.com/wp-content/plugins/woocommerce-centaur-addon/includes/class-woocommerce-centaur-addon-tem in /home/annexhou/public_html/liposales.com/wp-content/plugins/woocommerce-centaur-addon/includes/class-woocommerce-centaur-addon-public.php on line 180

2019-09-15T15:32:41+00:00 CRITICAL Uncaught Error: Call to a member function get_image() on null in /home/annexhou/public_html/liposales.com/wp-content/plugins/woocommerce-centaur-addon/includes/class-woocommerce-centaur-addon-public.php:180
Stack trace:
#0 /home/annexhou/public_html/liposales.com/wp-includes/class-wp-hook.php(286): Woocommerce_Centaur_Addon_Public->get_product_thumbnail('')
#1 /home/annexhou/public_html/liposales.com/wp-includes/class-wp-hook.php(310): WP_Hook->apply_filters('', Array)
#2 /home/annexhou/public_html/liposales.com/wp-includes/plugin.php(465): WP_Hook->do_action(Array)
#3 /home/annexhou/public_html/liposales.com/wp-content/themes/liposales/centaur/modal/content-body.php(18): do_action('cm_woo_get_thum...')
#4 /home/annexhou/public_html/liposales.com/wp-content/plugins/woocommerce-centaur-addon/includes/class-woocommerce-centaur-addon-template.php(94): include('/home/annexhou/...')
#5 /home/annexhou/public_html/liposales.com/wp-content/plugins/woocommerce-centaur-addon/includes/class-woocommerce-centaur-addon-tem in /home/annexhou/public_html/liposales.com/wp-content/plugins/woocommerce-centaur-addon/includes/class-woocommerce-centaur-addon-public.php on line 180

2019-09-15T15:39:39+00:00 CRITICAL Uncaught Error: Call to a member function get_image() on null in /home/annexhou/public_html/liposales.com/wp-content/plugins/woocommerce-centaur-addon/includes/class-woocommerce-centaur-addon-public.php:180
Stack trace:
#0 /home/annexhou/public_html/liposales.com/wp-includes/class-wp-hook.php(286): Woocommerce_Centaur_Addon_Public->get_product_thumbnail('')
#1 /home/annexhou/public_html/liposales.com/wp-includes/class-wp-hook.php(310): WP_Hook->apply_filters('', Array)
#2 /home/annexhou/public_html/liposales.com/wp-includes/plugin.php(465): WP_Hook->do_action(Array)
#3 /home/annexhou/public_html/liposales.com/wp-content/themes/liposales/centaur/modal/content-body.php(18): do_action('cm_woo_get_thum...')
#4 /home/annexhou/public_html/liposales.com/wp-content/plugins/woocommerce-centaur-addon/includes/class-woocommerce-centaur-addon-template.php(94): include('/home/annexhou/...')
#5 /home/annexhou/public_html/liposales.com/wp-content/plugins/woocommerce-centaur-addon/includes/class-woocommerce-centaur-addon-tem in /home/annexhou/public_html/liposales.com/wp-content/plugins/woocommerce-centaur-addon/includes/class-woocommerce-centaur-addon-public.php on line 180

2019-09-15T15:46:32+00:00 CRITICAL Uncaught Error: Call to a member function get_image() on null in /home/annexhou/public_html/liposales.com/wp-content/plugins/woocommerce-centaur-addon/includes/class-woocommerce-centaur-addon-public.php:180
Stack trace:
#0 /home/annexhou/public_html/liposales.com/wp-includes/class-wp-hook.php(286): Woocommerce_Centaur_Addon_Public->get_product_thumbnail('')
#1 /home/annexhou/public_html/liposales.com/wp-includes/class-wp-hook.php(310): WP_Hook->apply_filters('', Array)
#2 /home/annexhou/public_html/liposales.com/wp-includes/plugin.php(465): WP_Hook->do_action(Array)
#3 /home/annexhou/public_html/liposales.com/wp-content/themes/liposales/centaur/modal/content-body.php(18): do_action('cm_woo_get_thum...')
#4 /home/annexhou/public_html/liposales.com/wp-content/plugins/woocommerce-centaur-addon/includes/class-woocommerce-centaur-addon-template.php(94): include('/home/annexhou/...')
#5 /home/annexhou/public_html/liposales.com/wp-content/plugins/woocommerce-centaur-addon/includes/class-woocommerce-centaur-addon-tem in /home/annexhou/public_html/liposales.com/wp-content/plugins/woocommerce-centaur-addon/includes/class-woocommerce-centaur-addon-public.php on line 180

2019-09-15T16:23:28+00:00 CRITICAL Uncaught Error: Call to a member function get_image() on null in /home/annexhou/public_html/liposales.com/wp-content/plugins/woocommerce-centaur-addon/includes/class-woocommerce-centaur-addon-public.php:180
Stack trace:
#0 /home/annexhou/public_html/liposales.com/wp-includes/class-wp-hook.php(286): Woocommerce_Centaur_Addon_Public->get_product_thumbnail('')
#1 /home/annexhou/public_html/liposales.com/wp-includes/class-wp-hook.php(310): WP_Hook->apply_filters('', Array)
#2 /home/annexhou/public_html/liposales.com/wp-includes/plugin.php(465): WP_Hook->do_action(Array)
#3 /home/annexhou/public_html/liposales.com/wp-content/themes/liposales/centaur/modal/content-body.php(18): do_action('cm_woo_get_thum...')
#4 /home/annexhou/public_html/liposales.com/wp-content/plugins/woocommerce-centaur-addon/includes/class-woocommerce-centaur-addon-template.php(94): include('/home/annexhou/...')
#5 /home/annexhou/public_html/liposales.com/wp-content/plugins/woocommerce-centaur-addon/includes/class-woocommerce-centaur-addon-tem in /home/annexhou/public_html/liposales.com/wp-content/plugins/woocommerce-centaur-addon/includes/class-woocommerce-centaur-addon-public.php on line 180

2019-09-15T16:43:13+00:00 CRITICAL Uncaught Error: Call to a member function get_image() on null in /home/annexhou/public_html/liposales.com/wp-content/plugins/woocommerce-centaur-addon/includes/class-woocommerce-centaur-addon-public.php:180
Stack trace:
#0 /home/annexhou/public_html/liposales.com/wp-includes/class-wp-hook.php(286): Woocommerce_Centaur_Addon_Public->get_product_thumbnail('')
#1 /home/annexhou/public_html/liposales.com/wp-includes/class-wp-hook.php(310): WP_Hook->apply_filters('', Array)
#2 /home/annexhou/public_html/liposales.com/wp-includes/plugin.php(465): WP_Hook->do_action(Array)
#3 /home/annexhou/public_html/liposales.com/wp-content/themes/liposales/centaur/modal/content-body.php(18): do_action('cm_woo_get_thum...')
#4 /home/annexhou/public_html/liposales.com/wp-content/plugins/woocommerce-centaur-addon/includes/class-woocommerce-centaur-addon-template.php(94): include('/home/annexhou/...')
#5 /home/annexhou/public_html/liposales.com/wp-content/plugins/woocommerce-centaur-addon/includes/class-woocommerce-centaur-addon-tem in /home/annexhou/public_html/liposales.com/wp-content/plugins/woocommerce-centaur-addon/includes/class-woocommerce-centaur-addon-public.php on line 180

2019-09-15T17:02:59+00:00 CRITICAL Uncaught Error: Call to a member function get_image() on null in /home/annexhou/public_html/liposales.com/wp-content/plugins/woocommerce-centaur-addon/includes/class-woocommerce-centaur-addon-public.php:180
Stack trace:
#0 /home/annexhou/public_html/liposales.com/wp-includes/class-wp-hook.php(286): Woocommerce_Centaur_Addon_Public->get_product_thumbnail('')
#1 /home/annexhou/public_html/liposales.com/wp-includes/class-wp-hook.php(310): WP_Hook->apply_filters('', Array)
#2 /home/annexhou/public_html/liposales.com/wp-includes/plugin.php(465): WP_Hook->do_action(Array)
#3 /home/annexhou/public_html/liposales.com/wp-content/themes/liposales/centaur/modal/content-body.php(18): do_action('cm_woo_get_thum...')
#4 /home/annexhou/public_html/liposales.com/wp-content/plugins/woocommerce-centaur-addon/includes/class-woocommerce-centaur-addon-template.php(94): include('/home/annexhou/...')
#5 /home/annexhou/public_html/liposales.com/wp-content/plugins/woocommerce-centaur-addon/includes/class-woocommerce-centaur-addon-tem in /home/annexhou/public_html/liposales.com/wp-content/plugins/woocommerce-centaur-addon/includes/class-woocommerce-centaur-addon-public.php on line 180

2019-09-15T17:33:02+00:00 CRITICAL Uncaught Error: Call to a member function get_image() on null in /home/annexhou/public_html/liposales.com/wp-content/plugins/woocommerce-centaur-addon/includes/class-woocommerce-centaur-addon-public.php:180
Stack trace:
#0 /home/annexhou/public_html/liposales.com/wp-includes/class-wp-hook.php(286): Woocommerce_Centaur_Addon_Public->get_product_thumbnail('')
#1 /home/annexhou/public_html/liposales.com/wp-includes/class-wp-hook.php(310): WP_Hook->apply_filters('', Array)
#2 /home/annexhou/public_html/liposales.com/wp-includes/plugin.php(465): WP_Hook->do_action(Array)
#3 /home/annexhou/public_html/liposales.com/wp-content/themes/liposales/centaur/modal/content-body.php(18): do_action('cm_woo_get_thum...')
#4 /home/annexhou/public_html/liposales.com/wp-content/plugins/woocommerce-centaur-addon/includes/class-woocommerce-centaur-addon-template.php(94): include('/home/annexhou/...')
#5 /home/annexhou/public_html/liposales.com/wp-content/plugins/woocommerce-centaur-addon/includes/class-woocommerce-centaur-addon-tem in /home/annexhou/public_html/liposales.com/wp-content/plugins/woocommerce-centaur-addon/includes/class-woocommerce-centaur-addon-public.php on line 180

2019-09-15T17:39:21+00:00 CRITICAL Uncaught Error: Call to a member function get_image() on null in /home/annexhou/public_html/liposales.com/wp-content/plugins/woocommerce-centaur-addon/includes/class-woocommerce-centaur-addon-public.php:180
Stack trace:
#0 /home/annexhou/public_html/liposales.com/wp-includes/class-wp-hook.php(286): Woocommerce_Centaur_Addon_Public->get_product_thumbnail('')
#1 /home/annexhou/public_html/liposales.com/wp-includes/class-wp-hook.php(310): WP_Hook->apply_filters('', Array)
#2 /home/annexhou/public_html/liposales.com/wp-includes/plugin.php(465): WP_Hook->do_action(Array)
#3 /home/annexhou/public_html/liposales.com/wp-content/themes/liposales/centaur/modal/content-body.php(18): do_action('cm_woo_get_thum...')
#4 /home/annexhou/public_html/liposales.com/wp-content/plugins/woocommerce-centaur-addon/includes/class-woocommerce-centaur-addon-template.php(94): include('/home/annexhou/...')
#5 /home/annexhou/public_html/liposales.com/wp-content/plugins/woocommerce-centaur-addon/includes/class-woocommerce-centaur-addon-tem in /home/annexhou/public_html/liposales.com/wp-content/plugins/woocommerce-centaur-addon/includes/class-woocommerce-centaur-addon-public.php on line 180

2019-09-15T20:33:47+00:00 CRITICAL Uncaught Error: Call to a member function get_image() on null in /home/annexhou/public_html/liposales.com/wp-content/plugins/woocommerce-centaur-addon/includes/class-woocommerce-centaur-addon-public.php:180
Stack trace:
#0 /home/annexhou/public_html/liposales.com/wp-includes/class-wp-hook.php(286): Woocommerce_Centaur_Addon_Public->get_product_thumbnail('')
#1 /home/annexhou/public_html/liposales.com/wp-includes/class-wp-hook.php(310): WP_Hook->apply_filters('', Array)
#2 /home/annexhou/public_html/liposales.com/wp-includes/plugin.php(465): WP_Hook->do_action(Array)
#3 /home/annexhou/public_html/liposales.com/wp-content/themes/liposales/centaur/modal/content-body.php(18): do_action('cm_woo_get_thum...')
#4 /home/annexhou/public_html/liposales.com/wp-content/plugins/woocommerce-centaur-addon/includes/class-woocommerce-centaur-addon-template.php(94): include('/home/annexhou/...')
#5 /home/annexhou/public_html/liposales.com/wp-content/plugins/woocommerce-centaur-addon/includes/class-woocommerce-centaur-addon-tem in /home/annexhou/public_html/liposales.com/wp-content/plugins/woocommerce-centaur-addon/includes/class-woocommerce-centaur-addon-public.php on line 180

2019-09-15T20:43:30+00:00 CRITICAL Uncaught Error: Call to a member function get_image() on null in /home/annexhou/public_html/liposales.com/wp-content/plugins/woocommerce-centaur-addon/includes/class-woocommerce-centaur-addon-public.php:180
Stack trace:
#0 /home/annexhou/public_html/liposales.com/wp-includes/class-wp-hook.php(286): Woocommerce_Centaur_Addon_Public->get_product_thumbnail('')
#1 /home/annexhou/public_html/liposales.com/wp-includes/class-wp-hook.php(310): WP_Hook->apply_filters('', Array)
#2 /home/annexhou/public_html/liposales.com/wp-includes/plugin.php(465): WP_Hook->do_action(Array)
#3 /home/annexhou/public_html/liposales.com/wp-content/themes/liposales/centaur/modal/content-body.php(18): do_action('cm_woo_get_thum...')
#4 /home/annexhou/public_html/liposales.com/wp-content/plugins/woocommerce-centaur-addon/includes/class-woocommerce-centaur-addon-template.php(94): include('/home/annexhou/...')
#5 /home/annexhou/public_html/liposales.com/wp-content/plugins/woocommerce-centaur-addon/includes/class-woocommerce-centaur-addon-tem in /home/annexhou/public_html/liposales.com/wp-content/plugins/woocommerce-centaur-addon/includes/class-woocommerce-centaur-addon-public.php on line 180

2019-09-15T21:23:50+00:00 CRITICAL Uncaught Error: Call to a member function get_image() on null in /home/annexhou/public_html/liposales.com/wp-content/plugins/woocommerce-centaur-addon/includes/class-woocommerce-centaur-addon-public.php:180
Stack trace:
#0 /home/annexhou/public_html/liposales.com/wp-includes/class-wp-hook.php(286): Woocommerce_Centaur_Addon_Public->get_product_thumbnail('')
#1 /home/annexhou/public_html/liposales.com/wp-includes/class-wp-hook.php(310): WP_Hook->apply_filters('', Array)
#2 /home/annexhou/public_html/liposales.com/wp-includes/plugin.php(465): WP_Hook->do_action(Array)
#3 /home/annexhou/public_html/liposales.com/wp-content/themes/liposales/centaur/modal/content-body.php(18): do_action('cm_woo_get_thum...')
#4 /home/annexhou/public_html/liposales.com/wp-content/plugins/woocommerce-centaur-addon/includes/class-woocommerce-centaur-addon-template.php(94): include('/home/annexhou/...')
#5 /home/annexhou/public_html/liposales.com/wp-content/plugins/woocommerce-centaur-addon/includes/class-woocommerce-centaur-addon-tem in /home/annexhou/public_html/liposales.com/wp-content/plugins/woocommerce-centaur-addon/includes/class-woocommerce-centaur-addon-public.php on line 180

2019-09-15T22:54:28+00:00 CRITICAL Uncaught Error: Call to a member function get_image() on null in /home/annexhou/public_html/liposales.com/wp-content/plugins/woocommerce-centaur-addon/includes/class-woocommerce-centaur-addon-public.php:180
Stack trace:
#0 /home/annexhou/public_html/liposales.com/wp-includes/class-wp-hook.php(286): Woocommerce_Centaur_Addon_Public->get_product_thumbnail('')
#1 /home/annexhou/public_html/liposales.com/wp-includes/class-wp-hook.php(310): WP_Hook->apply_filters('', Array)
#2 /home/annexhou/public_html/liposales.com/wp-includes/plugin.php(465): WP_Hook->do_action(Array)
#3 /home/annexhou/public_html/liposales.com/wp-content/themes/liposales/centaur/modal/content-body.php(18): do_action('cm_woo_get_thum...')
#4 /home/annexhou/public_html/liposales.com/wp-content/plugins/woocommerce-centaur-addon/includes/class-woocommerce-centaur-addon-template.php(94): include('/home/annexhou/...')
#5 /home/annexhou/public_html/liposales.com/wp-content/plugins/woocommerce-centaur-addon/includes/class-woocommerce-centaur-addon-tem in /home/annexhou/public_html/liposales.com/wp-content/plugins/woocommerce-centaur-addon/includes/class-woocommerce-centaur-addon-public.php on line 180

